startboss:
		move.w sr,-(sp)
		move.w #$2700,sr
		
		move.b #$07,vblank_id
		move.b #$00,rasterflag
		lea (music_mystic1)+40,a2
		
		move.w (sp)+,sr
		rts

final_boss: ;vblank vector
		bsr music_driver
		rte
	